{
  "hosting": {
    "S3AndCloudFront": {
      "service": "S3AndCloudFront",
      "providerPlugin": "awscloudformation"
    }
  },
  "auth": {
    "dndcampaignmanager943067c5": {
      "service": "Cognito",
      "providerPlugin": "awscloudformation",
      "dependsOn": []
    }
  },
  "api": {
    "camp": {
      "service": "AppSync",
      "providerPlugin": "awscloudformation",
      "output": {
        "authConfig": {
          "additionalAuthenticationProviders": [],
          "defaultAuthentication": {
            "authenticationType": "AMAZON_COGNITO_USER_POOLS",
            "userPoolConfig": {
              "userPoolId": "authdndcampaignmanager943067c5"
            }
          }
        }
      }
    }
  }
}
